[gd_scene format=3 uid="uid://dyvgup35u1mm"]

[node name="tunnel" type="Node3D"]

[node name="CSGCombiner3D" type="CSGCombiner3D" parent="."]
use_collision = true

[node name="CSGBox3D" type="CSGBox3D" parent="CSGCombiner3D"]
transform = Transform3D(1, 0, 0, 0, 1, 0, 0, 0, 1, 0.0136814, 0, -0.00770855)
size = Vector3(5, 10, 5)

[node name="CSGBox3D2" type="CSGBox3D" parent="CSGCombiner3D"]
transform = Transform3D(1, 0, 0, 0, 1, 0, 0, 0, 1, 0.0136814, 0, -0.00770855)
operation = 2
size = Vector3(3, 10, 3)

[node name="CSGBox3D3" type="CSGBox3D" parent="CSGCombiner3D"]
transform = Transform3D(1, 0, 0, 0, 1, 0, 0, 0, 1, 0, -4, 2)
operation = 2
size = Vector3(2, 2, 2)
