[gd_scene load_steps=14 format=3 uid="uid://cebwhe813qviq"]

[ext_resource type="Texture2D" uid="uid://bs8atlepclylh" path="res://assets/textures/grids/Green/texture_02.png" id="1_a0cv6"]
[ext_resource type="PackedScene" uid="uid://crgyie6xrngtr" path="res://src/actors/player/player.tscn" id="1_tpkhc"]
[ext_resource type="PackedScene" uid="uid://3ui8b3lkrtap" path="res://src/objects/platform.tscn" id="2_vf4st"]
[ext_resource type="PackedScene" uid="uid://dyvgup35u1mm" path="res://src/objects/tunnel.tscn" id="3_kyjpe"]
[ext_resource type="Script" path="res://src/camera/view.gd" id="4_kntjr"]
[ext_resource type="PackedScene" uid="uid://c8ooeex2q21cp" path="res://src/ui/debug_layer.tscn" id="6_ag1gy"]
[ext_resource type="PackedScene" uid="uid://bfv4iukm1xn0x" path="res://src/objects/falling_stone.tscn" id="7_cvoaq"]
[ext_resource type="PackedScene" uid="uid://3bseueuvi7ao" path="res://src/objects/jump_pad.tscn" id="8_qug5s"]

[sub_resource type="ProceduralSkyMaterial" id="ProceduralSkyMaterial_xnn28"]
sky_horizon_color = Color(0.64625, 0.65575, 0.67075, 1)
ground_horizon_color = Color(0.64625, 0.65575, 0.67075, 1)

[sub_resource type="Sky" id="Sky_vfe1y"]
sky_material = SubResource("ProceduralSkyMaterial_xnn28")

[sub_resource type="Environment" id="Environment_6r020"]
background_mode = 2
sky = SubResource("Sky_vfe1y")
tonemap_mode = 2
glow_enabled = true

[sub_resource type="NavigationMesh" id="NavigationMesh_tjmkn"]
vertices = PackedVector3Array(-24.5, 0.45, -1, -7, 0.45, -1, -7, 0.45, -3, -24.5, 0.45, -1, -7, 0.45, -3, -5.25, 0.45, -3.25, -5.5, 0.45, -24.5, -24.5, 0.45, -24.5, -5.25, 0.45, -3.25, -2.5, 0.45, -3.25, -2.25, 0.45, -24.5, -5.5, 0.45, -24.5, -2.25, 0.45, -24.5, -2.5, 0.45, -3.25, -1, 0.45, -3.25, -2.25, 0.45, -24.5, -1, 0.45, -3.25, -0.75, 0.45, -1.5, 24.5, 0.45, -1.75, 24.5, 0.45, -24.5, 7, 5.7, -8, 7, 5.7, -4, 11, 5.7, -4, 11, 5.7, -8, 0, 6.7, -5, 0, 6.7, -1, 4, 6.7, -1, 4, 6.7, -5, -6, 10.45, -2.25, -5.75, 10.45, -1.75, -2.25, 10.45, -2, -1.75, 10.45, -2.25, -5.75, 10.45, -1.75, -6, 10.45, -2.25, -6, 10.45, 2, -5.5, 10.45, 1.75, -1.75, 10.45, -2.25, -2.25, 10.45, -2, -2, 10.45, 1.5, -1.75, 10.45, 2, -5.5, 10.45, 1.75, -6, 10.45, 2, -1.75, 10.45, 2, -2, 10.45, 1.5, 7, 3.7, -2, 7, 3.7, 2, 11, 3.7, 2, 11, 3.7, -2, -0.75, 0.45, -1.5, -0.75, 0.45, 1.25, 24.5, 0.45, 1.5, 24.5, 0.45, -1.75, -24.5, 0.45, 0.75, -7, 0.45, 0.75, -7, 0.45, -1, -24.5, 0.45, -1, -3.5, 0.45, 2.75, -3, 0.45, -1, -4.75, 0.45, -1, -4.25, 0.45, 2.75, -4.25, 0.45, 2.75, -6.5, 0.45, 3, -6.5, 0.45, 24.5, -1.25, 0.45, 24.5, -1.25, 0.45, 3, -3.5, 0.45, 2.75, -7, 0.45, 2.75, -7, 0.45, 0.75, -24.5, 0.45, 0.75, -6.5, 0.45, 3, -7, 0.45, 2.75, -24.5, 0.45, 0.75, -24.5, 0.45, 24.5, -6.5, 0.45, 24.5, -0.75, 0.45, 2.75, -1.25, 0.45, 3, -1.25, 0.45, 24.5, 24.5, 0.45, 24.5, 24.5, 0.45, 1.5, 24.5, 0.45, 1.5, -0.75, 0.45, 1.25, -0.75, 0.45, 2.75, -14.25, 5.7, 11, -14.25, 5.7, 15.25, -10, 5.7, 15.25, -10, 5.7, 11)
polygons = [PackedInt32Array(2, 1, 0), PackedInt32Array(4, 3, 5), PackedInt32Array(5, 3, 6), PackedInt32Array(6, 3, 7), PackedInt32Array(8, 11, 9), PackedInt32Array(9, 11, 10), PackedInt32Array(14, 13, 12), PackedInt32Array(16, 15, 17), PackedInt32Array(17, 15, 18), PackedInt32Array(18, 15, 19), PackedInt32Array(23, 22, 20), PackedInt32Array(20, 22, 21), PackedInt32Array(27, 26, 24), PackedInt32Array(24, 26, 25), PackedInt32Array(29, 28, 30), PackedInt32Array(30, 28, 31), PackedInt32Array(35, 34, 32), PackedInt32Array(32, 34, 33), PackedInt32Array(37, 36, 38), PackedInt32Array(38, 36, 39), PackedInt32Array(43, 42, 40), PackedInt32Array(40, 42, 41), PackedInt32Array(47, 46, 44), PackedInt32Array(44, 46, 45), PackedInt32Array(48, 51, 49), PackedInt32Array(49, 51, 50), PackedInt32Array(55, 54, 52), PackedInt32Array(52, 54, 53), PackedInt32Array(59, 58, 56), PackedInt32Array(56, 58, 57), PackedInt32Array(65, 64, 60), PackedInt32Array(60, 64, 61), PackedInt32Array(61, 64, 63), PackedInt32Array(61, 63, 62), PackedInt32Array(68, 67, 66), PackedInt32Array(70, 69, 71), PackedInt32Array(71, 69, 73), PackedInt32Array(71, 73, 72), PackedInt32Array(75, 74, 76), PackedInt32Array(76, 74, 77), PackedInt32Array(77, 74, 78), PackedInt32Array(81, 80, 79), PackedInt32Array(85, 84, 82), PackedInt32Array(82, 84, 83)]

[sub_resource type="StandardMaterial3D" id="StandardMaterial3D_n40f0"]
albedo_texture = ExtResource("1_a0cv6")
uv1_triplanar = true

[node name="Main" type="Node3D"]

[node name="WorldEnvironment" type="WorldEnvironment" parent="."]
environment = SubResource("Environment_6r020")

[node name="DirectionalLight3D" type="DirectionalLight3D" parent="."]
transform = Transform3D(-0.866023, -0.433016, 0.250001, 0, 0.499998, 0.866027, -0.500003, 0.749999, -0.43301, 0, 0, 0)
shadow_enabled = true

[node name="Player" parent="." node_paths=PackedStringArray("_viewPoint") instance=ExtResource("1_tpkhc")]
transform = Transform3D(1, 0, 0, 0, 1, 0, 0, 0, 1, -1.98425, 11.7984, 0)
_viewPoint = NodePath("../ViewPoint")

[node name="ViewPoint" type="Node3D" parent="." node_paths=PackedStringArray("target")]
script = ExtResource("4_kntjr")
target = NodePath("../Player")

[node name="Camera3D" type="Camera3D" parent="ViewPoint"]
doppler_tracking = 2

[node name="NavigationRegion3D" type="NavigationRegion3D" parent="."]
navigation_mesh = SubResource("NavigationMesh_tjmkn")

[node name="Terrain" type="CSGBox3D" parent="NavigationRegion3D"]
material_override = SubResource("StandardMaterial3D_n40f0")
use_collision = true
size = Vector3(50, 0.1, 50)

[node name="tunnel" parent="NavigationRegion3D" instance=ExtResource("3_kyjpe")]
transform = Transform3D(1, 0, 0, 0, 1, 0, 0, 0, 1, -4, 5, 0)

[node name="platform" parent="NavigationRegion3D" instance=ExtResource("2_vf4st")]
transform = Transform3D(1, 0, 0, 0, 1, 0, 0, 0, 1, 9, 3, 0)

[node name="platform3" parent="NavigationRegion3D" instance=ExtResource("2_vf4st")]
transform = Transform3D(1, 0, 0, 0, 1, 0, 0, 0, 1, 9, 5, -6)

[node name="platform2" parent="NavigationRegion3D" instance=ExtResource("2_vf4st")]
transform = Transform3D(1, 0, 0, 0, 1, 0, 0, 0, 1, 2, 6, -3)

[node name="platform4" parent="NavigationRegion3D" instance=ExtResource("2_vf4st")]
transform = Transform3D(1, 0, 0, 0, 1, 0, 0, 0, 1, -12.201, 3, 13.017)

[node name="platform5" parent="NavigationRegion3D" instance=ExtResource("2_vf4st")]
transform = Transform3D(1, 0, 0, 0, 1, 0, 0, 0, 1, -12.201, 5, 13.017)

[node name="NavigationLink3D" type="NavigationLink3D" parent="NavigationRegion3D"]
transform = Transform3D(1, 0, 0, 0, 1, 0, 0, 0, 1, 8, 0, 4)
start_position = Vector3(0.118814, 0.402615, 0.800751)
end_position = Vector3(1.46278, 3.52039, -3.7696)

[node name="DebugLayer" parent="." instance=ExtResource("6_ag1gy")]

[node name="FallingStone" parent="." instance=ExtResource("7_cvoaq")]
transform = Transform3D(1, 0, 0, 0, 1, 0, 0, 0, 1, 19.487, 4.16974, 4.14111)

[node name="JumpPad" parent="." instance=ExtResource("8_qug5s")]
transform = Transform3D(1, 0, 0, 0, 1, 0, 0, 0, 1, 5, 0, 10)
