[gd_scene load_steps=4 format=3 uid="uid://crgyie6xrngtr"]

[ext_resource type="Script" path="res://src/actors/player/player.gd" id="1_0vf4o"]
[ext_resource type="PackedScene" uid="uid://xy8rvnjp22n5" path="res://assets/models/character.glb" id="2_0ykm6"]

[sub_resource type="SphereShape3D" id="SphereShape3D_8n4w6"]

[node name="Player" type="CharacterBody3D" node_paths=PackedStringArray("model")]
collision_layer = 2
script = ExtResource("1_0vf4o")
model = NodePath("Model")

[node name="Model" parent="." instance=ExtResource("2_0ykm6")]

[node name="Collider" type="CollisionShape3D" parent="."]
transform = Transform3D(1, 0, 0, 0, 1, 0, 0, 0, 1, 0, 0.491803, 0)
shape = SubResource("SphereShape3D_8n4w6")
